AUI991, UKBB, LEBL, N0460F360 KR P27 VI Q560 LONLA DCT DIMLO UM859 DOL UP735 RIFEN UM196 LAGEN UM859 VAMTU UM984 DIVKO UN975 BISBA
AUI423, UKBB, EDDT, N0460F360 KR T731 OKROT M70 POLON L980 KELOD L979 GOVEN T205 NUKRO
AUI95Z, UKLL, UKOO, N0460F350 KUSAK L981 INROG M860 KIV P133 SURAP
UDN204, UKLL, UKDD, N0430F350 GORKU L984 OSLAN
UDN3016, LYTV, UKLL, N0430F350 NIK UP129 REBLA UM977 RUMUK M977 SVITA
AUI106, EHAM, UKBB, N0460F350 ARNEM UL620 SUVOX UZ713 OSN UL980 SUI L980 POLON M70 SLV
AUI897, UKBB, LUKK, N0430F280 SULUM W641 LAVDA Z888 MURKA
AUI578, UUDD, UKBB, N0460F360 SUGIR B901 BANIP R22 PIMEN N181 NEMIP
UTN3211, UKLL, LTAI, N0460F370 KUSAK L981 RIMOS P727 BUKOV UN616 DINRO L620 RIXEN UG1 IST UT35 BABSA
AUI542, ULLI, UKBB, N0460F360 OKUDI B8 OLAGO M856 KUVAL
AUI547, UKOO, ULLI, N0460F350 SH B492 LAMEX M854 BABUN N743 MOGRA B720 PEMAS R1 UBORI B957 OGINO
UDN502, UUDD, UKDD, N0430F340 DK DCT ATLIM DCT SUGIR A131 FORMA P29 GR
WRC7012, LTAI, UKBB, N0450F340 EKSEN UT337 YASEN UL619 MAKOL N617 BINBI UN617 OSDOR N617 ODS T219 KONIP
AUI575, UKBB, UUDD, N0460F350 KUROS N180 RONIT R119 IN
AUI55S, UKBB, UKOO, N0460F290 SULUM M856 ABRIS
UDN054, UKLI, UKBB, N0430F270 ILTUK M986 SLV
UDN501, UKDD, UUDD, N0430F330 NIKAD M853 NALEG A97 TUMIT G476 IN DCT DR
AUI892, UMMS, UKBB, N0460F290 DELON P987 BORAT L33 NANIR
AUI5252, LEPA, UKBB, N0460F360 MEROS UN853 LUMAS UQ206 NOSTA UM985 ABN UQ985 MALUG/M078F350 UM985 ABLOM UL725 LEDRI UM985 NIT UM991 MALBE M991 IVF M986 SLV SLV1F/36R
AUI891, UKBB, UMMS, N0460F300 BO B246 LASDA M850 NASKA
WRC3211, UKDD, LYTV, N0430F380 PEKIT A83 LAPVA N164 BAMUD UN164 MOJ UN732 POD
AUI5251, UKBB, LEPA, N0460F360 KR P27 VI M141 LADOB UM141 OKR UL856 GUKTU UM138 ABRUK UM984 DETSA/M078F370 UQ984 VAMTU UM984 PADKO UY38 VATIR UN852 PIVUS UZ237 SISMO UN855 KENAS KENA1P
WRC7172, LDPL, UKBB, N0450F350 GIRDA M178 ILB N737 DOL UM859 DIMLO DCT LONLA M986 SLV
AUI541, UKBB, ULLI, N0460F360 BO B246 LASDA P749 VTB M856 OLAGO B8 WKL R1 UBORI B957 OGINO
UDN516, LBBG, UKDD, N0430F350 XILTI T555 MATEL L743 REVDA UL743 OSDOR L743 PEXON M987 KVR W673 TIRPU
AUI714, LTBA, UKBB, N0460F360 MAKOL N600 REVDA UN600 BADKA N600 VOLVO T34 ATREK N180 SULUM SULU1F/36R
AUI602, UBBB, UKBB, N0460F360 AGDAM M747 LUSAL M11 REBLO UM11 TBN UL851 KUGOS M860 BOMKI M854 RASIL M435 MIMKO T219 KONIP
AUI602, UBBB, UKBB, N0460F360 AGDAM M747 LUSAL M11 REBLO UM11 TBN UL851 KUGOS M860 BOMKI M854 RASIL M435 MIMKO T219 KONIP
AUI717, UKOO, LTBA, N0460F350 BUNAG T219 BAGRI UL919 DINRO N616 RIXEN UL620 UNSAV
UDN515, UKDD, LBBG, N0450F360 TIRPU W673 KVR M987 ODS/N0449F370 T219 BAGRI UL919 DINRO L919 GOSLO/N0452F360 T228 RUTAR
WRC3011, UKDD, LTAI, N0450F340 TADID L4 KH L140 RITED DCT POGOD DCT KUKIV DCT LAROM M856 RAKUR UM856 BAG UP29 DAMLA
AUI472, LSZH, UKBB, N0430F350 DEGES Z2 XEBIX UN871 BADVI UL725 ABLOM UM985 NIT UM991 MALBE M991 IVF M986 SLV
AUI53B, UKBB, UKOO, N0460F270 SULUM M856 ABRIS
WRC1101, UKBB, UKDD, N0450F270 PI L33 DEMER M70 ORSUS
UDN001, UKBB, UKDD, N0430F270 PI L33 DEMER M70 ORSUS
AUI36U, UKLL, UKBB, N0460F290 ADBAN N983 PEPIL P27 LAPVA M70 SLV
WRC7171, UKBB, LDPL, N0450F360 KR P27 VI Q560 LONLA DCT KOPRY UM986 KULEN
AUI35V, UKBB, UKLL, N0460F300 KR P27 PEPIL N983 ADBAN
AUI518, UGTB, UKBB, N0470F360 DF M737 BT N37 ODILI N644 ROLIN UN644 KARDE UL851 KUGOS M860 BOMKI M854 RASIL M435 MIMKO T219 KONIP
AUI172, ESSA, UKBB, N0430F350 BABAP P156 NEKLA N623 NEKET M870 DUKAT M996 OSMUS L33 NANIR
AUI544, ULLI, UKBB, N0460F360 OKUDI B8 OLAGO M856 KUVAL
WRC7102, LGRP, UKBB, N0450F390 PIROX UN129 DUGLA UG80 BIG UN604 MAKOL N617 BINBI UN617 OSDOR N617 ODS T219 KONIP
AUI517, UKBB, UGTB, N0470F350 SULUM M856 ODS M854 ROPUT M747 SOBLO DCT IDLER M747 LAGAS
AUI171, UKBB, ESSA, N0430F360 BO B246 LASDA M850 NASKA N623 PODIL Y130 RIA M850 NEBSI L870 XILAN
AUI105, UKBB, EHAM, N0460F360 KR T731 OKROT M70 POLON L980 SUI UL980 AMSAN T281 NORKU
AUI601, UKBB, UBBB, N0460F350 SULUM M856 ODS M854 ROPUT M747 SOBLO DCT IDLER N319 ADEKI L850 ERLEV
AUI602, UBBB, UKBB, N0460F360 AGDAM M747 LUSAL M11 REBLO UM11 TBN UL851 KUGOS M860 BOMKI M854 RASIL M435 MIMKO T219 KONIP
AUI601, UKBB, UBBB, N0460F350 SULUM M856 ODS M854 ROPUT M747 SOBLO DCT IDLER N319 ADEKI L850 ERLEV
AUI58D, UKOO, UKBB, N0460F290 BULAN T219 KONIP
AUI57E, UKBB, UKOO, N0460F290 SULUM M856 ABRIS
AUI5092, LBBG, UKBB, N0460F360 XILTI T555 MATEL L743 REVDA UL743 OSDOR N617 ODS T219 KONIP
UTN4456, LBBG, UKBB, N0460F370 XILTI T555 MATEL L743 REVDA UL743 OSDOR N617 ODS T219 KONIP
AUI5091, UKBB, LBBG, N0460F350 SULUM M856 GOBLI L919 BAGRI UL919 DINRO L919 GOSLO T228 RUTAR
WRC7101, UKBB, LGRP, N0450F350 SULUM M856 GOBLI L919 BAGRI/M077F360 UL919 DINRO N616 RIXEN UN616 CRD UW78 DAL UN136 SOTIV
AUI787, UKOO, LLBG, N0430F350 PERED M856 RAKUR UM856 MUT UL620 ALSUS UR18 VELOX W13 SOLIN
AUI53B, UKBB, UKOO, N0460F290 SULUM M856 ABRIS
AUI35V, UKBB, UKLL, N0460F280 KR P27 PEPIL N983 ADBAN
AUI7573, LZKZ, UKBB, N0460F350 EBENI A42 MALBE M991 IVF M986 SLV
UKR7588, UKBB, UKOO, N0430F290 SULUM M856 ABRIS
AUI001, UKBB, LZKZ, N0460F360 KR P27 MALBE A42 EBENI
AUI054, UKOO, UKBB, N0430F290 BULAN T219 KONIP
AUI578, UUDD, UKBB, N0460F360 SUGIR B901 BANIP R22 PIMEN N181 NEMIP
AUI575, UKBB, UUDD, N0460F350 KUROS N180 RONIT R119 IN
WRC1102, UKDD, UKBB, N0450F280 PEKIT A83 VEBIX
AUI5022, HEGN, UKBB, N0450F360 HGD V603 GIDID DCT KAPIT UL677 CVO A16 RASDA UA16 KOSEG UM855 AYT/M078F370 UW77 BAG UW71 BUK/M078F380 UM861 RAKUR M856 ODS T219 KONIP
AUI88P, UKDE, UKBB, N0430F280 DNP W627 PEKIT A83 VEBIX
AUI152, EFHK, UKBB, N0430F350 DOBAN L732 VALGA P171 DUBIN M854 MNS P987 BORAT L33 NANIR
AUI87C, UKBB, UKDE, N0430F290 PI L33 DEMER M70 DNP
WRC3002, LCLK, UKDD, N0463F350 RUDER UM978 ALSUS UB15 VESAR UL619 MUT UL621 BUK UM861 RAKUR M856 ODS/M077F340 M987 KVR DCT TIRPU TIRP3X/08
AUI471, UKBB, LSZH, N0430F340 KR P27 VI M141 LADOB UM141 OKR UL856 NEGRA
AUI543, UKBB, ULLI, N0460F360 BO B246 LASDA P749 VTB M856 OLAGO B8 WKL R1 UBORI B957 OGINO
AUI151, UKBB, EFHK, N0430F340 BO B246 LASDA M850 DUBIN M854 OSKAV P855 GONOS P171 INTOR
AUI892, UMMS, UKBB, N0460F290 DELON P987 BORAT L33 NANIR
AUI541, UKBB, ULLI, N0430F320 BO B246 LASDA P749 VTB M856 OLAGO B8 WKL R1 UBORI B957 OGINO
AUI891, UKBB, UMMS, N0460F300 BO B246 LASDA M850 NASKA
WRC7232, LBBG, UKBB, N0450F360 XILTI T555 MATEL L743 REVDA UL743 OSDOR N617 ODS T219 KONIP
UTN4455, UKBB, LBBG, N0460F380 SULUM M856 GOBLI L919 BAGRI UL919 DINRO L919 GOSLO T228 RUTAR
AUI5112, LYTV, UKBB, N0460F350 NIK UP129 ROMOL P129 IDKOG T983 SORON M986 SLV
AUI72N, UKDD, UKBB, N0430F280 PEKIT A83 VEBIX
WRC7231, UKBB, LBBG, N0450F370 SULUM M856 GOBLI L919 BAGRI UL919 DINRO L919 GOSLO T228 RUTAR
AUI26R, UKHH, UKBB, N0460F280 ETUKI W536 RS A137 GOTAP
AUI5065, UKBB, LEAL, N0460F340 KR P27 VI Q560 LONLA DCT DIMLO UM859 DOL UP735 RIFEN UM196 LAGEN UM859 VAMTU UM984 DIVKO UN852 PIVUS UZ237 OKITI UM603 GERVU
AUI71D, UKBB, UKDD, N0430F290 PI L33 DEMER M70 ORSUS
AUI23K, UKBB, UKHH, N0460F290 GOTAP A137 KW
AUI23K, UKBB, UKHH, N0460F290 GOTAP A137 KW
AUI716, LTBA, UKBB, N0460F340 MAKOL N600 REVDA UN600 BADKA N600 VOLVO/N440F330 T34 ATREK N180 SULUM
AUI58D, UKOO, UKBB, N0460F290 BULAN T219 KONIP
AUI714, LTBA, UKBB, N0460F360 MAKOL N600 REVDA UN600 BADKA N600 VOLVO T34 ATREK N180 SULUM
AUI5252, LEPA, UKBB, N0460F360 MEROS UN853 LUMAS UM985 GEN UM859 KALIK UZ388 CHI UM859 DIMLO DCT LONLA M986 SLV
AUI715, UKBB, LTBA, N0460F350 SULUM M856 GOBLI L919 BAGRI UT219 IRDUM T219 RIXEN UL620 TETSA
AUI548, ULLI, UKOO, N0460F360 OKUDI B8 OLAGO M856 ABRIS
AUI711, UKBB, LTBA, N0460F350 SULUM M856 GOBLI L919 BAGRI UT219 IRDUM T219 RIXEN UL620 TETSA
AUI547, UKOO, ULLI, N0460F350 BULAN T219 MIMKO M850 BASOR M856 OLAGO B8 OKUDI B157 LUKIR
AUI5251, UKBB, LEPA, N0460F360 VESEL M141 IVF M986 LONLA DCT DIMLO UM859 DOL UP735 RIFEN UM196 BADOP UP125 TULIK UM859 GEN UQ713 IXITO UN850 BALEN UT250 RIXOT
AUI848, LOWW, UKBB, N0460F350 KOXER Z649 XENAK M985 NIT UM991 MALBE M991 IVF M986 SLV
AUI56K, UKOO, UKBB, N0460F290 BULAN T219 KONIP
AUI486, LSGG, UKBB, N0460F350 MOLUS UN871 BADVI UL725 LEDRI UM985 NIT UM991 MALBE M991 IVF M986 SLV
AUI91F, UKHH, UKOO, N0460F300 GR M987 MOKAD
AUI544, ULLI, UKBB, N0460F360 OKUDI B8 OLAGO M856 KUVAL
AUI92M, UKOO, UKHH, N0460F310 MOKAD M987 GR
AUI55S, UKBB, UKOO, N0460F290 SULUM M856 ABRIS
AUI3TM, UKBB, LSGG, N0450F360 KR P27 VI M141 LADOB UM141 OKR UL856 TRA Z69 OLBEN UN869 BENOT
AUI543, UKBB, ULLI, N0460F360 BO B246 LASDA P749 VTB M856 OLAGO/M076F370 B8 WKL/M076F360 R1 UBORI B957 OGINO
AUI95Z, UKLL, UKOO, N0460F350 KUSAK L981 INROG M860 KIV P133 SURAP
AUI845, UKBB, LOWW, N0460F360 KR P27 VI M141 LADOB UM141 TIVON UP183 ETIPA P182 REKLU
AUI56K, UKOO, UKBB, N0460F310 BULAN T219 KONIP
AUI054, UKOO, UKBB, N0430F290 BULAN T219 KONIP
AUI55S, UKBB, UKOO, N0460F310 SULUM M856 ABRIS
AUI53B, UKBB, UKOO, N0430F290 SULUM M856 ABRIS
AUI846, LOWW, UKBB, N0460F350 KOXER Z649 XENAK M985 NIT UM991 MALBE M991 IVF M986 SLV
AUI5VU, EPWA, UKBB, N0430F350 XIMBA N195 OMAVA L980 DORER A137 LAPVA M70 SLV
UKR7588, UKBB, UKOO, N0430F290 SULUM M856 ABRIS
AUI9PQ, UKBB, EPWA, N0430F340 KR T731 OKROT M70 SOMOX N191 LIMVI
AUI33T, UKBB, UKLL, N0460F280 KR P27 PEPIL N983 ADBAN
AUI36U, UKLL, UKBB, N0460F290 ADBAN N983 SORON M986 SLV
AUI576, UUDD, UKBB, N0430F340 SUGIR B901 BANIP R22 PIMEN N181 NEMIP
AUI575, UKBB, UUDD, N0430F350 KUROS N180 RONIT R119 IN
UTN4456, LBBG, UKBB, N0460F370 XILTI T555 MATEL L743 REVDA UL743 OSDOR N617 ODS T219 KONIP
AUI7106, LZKZ, UKBB, N0430F350 EBENI A42 MALBE M991 IVF M986 SLV
AUI34L, UKLL, UKBB, N0430F290 ADBAN N983 SORON M986 SLV
WRC7215, LZKZ, UKBB, N0450F390 EBENI A42 MALBE M991 IVF M986 SLV
AUI7161, UKLL, LZKZ, N0430F200 SVITA Q560 VI P27 MALBE A42 EBENI
AUI7106, UKBB, LZKZ, N0430F360 KR P27 MALBE A42 EBENI
UKR7588, UKBB, UKOO, N0430F290 SULUM M856 ABRIS
AUI33T, UKBB, UKLL, N0460F280 KR P27 PEPIL N983 ADBAN
AUI845, UKBB, LOWW, N0460F360 KR P27 VI M141 LADOB UM141 TIVON UP183 ETIPA P182 REKLU
WRC7215, UKBB, LZKZ, N0450F380 KR P27 MALBE A42 EBENI
UKR7588, UKBB, UKOO, N0430F290 SULUM M856 ABRIS
WRC3001, UKDD, LCLK, N0404F200 TIRPU W673 KVR/N0446F340 M987 ODS/N0446F350 M856 RAKUR UM856 MUT UB545 VESAR UL620 ALSUS UM978 SOBOS
UDN007, UKKK, UKDD, N0430F270 PI L33 DEMER M70 ORSUS
WRC7215, LZKZ, UKBB, N0450F370 EBENI A42 MALBE M991 IVF M986 SLV
UDN008, UKDD, UKKK, N0430F260 PEKIT A83 VEBIX P749 CY
AUI26R, UKHH, UKBB, N0460F280 ETUKI W536 RS A137 GOTAP
WRC7215, UKBB, LZKZ, N0450F360 KR P27 MALBE A42 EBENI
UKR7588, UKOO, UKBB, N0430F290 BULAN T219 KONIP
AUI182, EYVI, UKBB, N0460F350 DUKAT M996 LIMPO M854 BABUN L33 NANIR
AUI1RQ, UKBB, LCLK, N0470F350 SULUM M856 RAKUR UM856 MUT UL620 ALSUS M978 SOBOS
UKR7588, UKBB, UKOO, N0430F290 SULUM M856 ABRIS
AUI23K, UKBB, UKHH, N0460F290 GOTAP A137 KW
AUI542, ULLI, UKBB, N0430F360 OKUDI B8 OLAGO M856 KUVAL
UKR7588, UKOO, UKBB, N0430F290 BULAN T219 KONIP
AUI172, ESSA, UKBB, N0430F350 BABAP P156 NEKLA N623 NEKET M870 DUKAT M996 OSMUS L33 NANIR
AUI715, UKBB, LTBA, N0430F350 SULUM M856 GOBLI L919 BAGRI UT219 IRDUM T219 RIXEN UL620 TETSA
UTN4412, LTAI, UKBB, N0460F360 EKSEN UT337 YASEN UL619 MAKOL N617 BINBI UN617 OSDOR N617 ODS T219 KONIP
AUI171, UKBB, ESSA, N0430F340 BO B246 LASDA M850 NASKA N623 PODIL Y130 RIA M850 NEBSI L870 XILAN
AUI5330, LTAI, UKBB, N0470F340 EKSEN UT337 YASEN UL619 MAKOL N617 BINBI UN617 OSDOR N617 ODS T219 KONIP
AUI58D, UKOO, UKBB, N0460F290 BULAN T219 KONIP
UKR7588, UKBB, UKOO, N0460F290 SULUM M856 ABRIS
AUI55S, UKBB, UKOO, N0460F290 SULUM M856 ABRIS
AUI5321, UKBB, LTAI, N0470F350 SULUM M856 GOBLI L919 BAGRI UL919 DINRO N616 RIXEN UN616 IST UT35 BABSA
AUI36U, UKLL, UKBB, N0460F290 ADBAN N983 SORON M986 SLV
AUI179, UKOO, EYVI, N0460F360 SH B492 LAMEX M854 BABUN L33 OSMUS M996 DUKAT
AUI35V, UKBB, UKLL, N0460F280 KR P27 PEPIL N983 ADBAN
AUI580, UUDD, UKOO, N0460F360 SUGIR B901 BANIP R22 PIMEN N181 TUVOG M856 ABRIS
AUI898, LUKK, UKBB, N0460F290 VOLVO T34 ATREK N180 SULUM
AUI897, UKBB, LUKK, N0460F280 SULUM W641 LAVDA Z888 MURKA
AUI26R, UKHH, UKBB, N0430F280 ETUKI W536 RS A137 GOTAP
AUI892, UMMS, UKBB, N0460F290 DELON P987 BORAT L33 NANIR
AUI25G, UKBB, UKHH, N0430F290 GOTAP A137 KW
AUI054, UKOO, UKBB, N0460F290 BULAN T219 KONIP
AUI891, UKBB, UMMS, N0460F300 BO B246 LASDA M850 NASKA
AUI58D, UKOO, UKBB, N0460F290 BULAN T219 KONIP
AUI57E, UKBB, UKOO, N0460F290 SULUM M856 ABRIS
UDN008, UKDD, UKKK, N0430F260 PEKIT A83 VEBIX P749 CY
AUI88P, UKDE, UKBB, N0430F280 DNP W627 PEKIT A83 VEBIX
AUI7023, UKLL, HEGN, N0456F350 KOKUP N195 BUKOV UN616 DINRO N616 RIXEN UN616 IST UL620 KFK UM855 RASDA A16 CVO A727 SEMRU UM872 HGD DCT
WRC7214, LYTV, UKBB, N0450F330 NIK UP129 ROMOL P129 IDKOG T983 SORON M986 SLV
AUI575, UKBB, UUDD, N0460F350 KUROS N180 RONIT R119 IN
UDN003, UKBB, UKDD, N0430F270 PI L33 DEMER M70 ORSUS
AUI87C, UKBB, UKDE, N0430F290 PI L33 DEMER M70 DNP
AUI5111, UKBB, LYTV, N0460F360 KR N164 BAMUD UN164 BUKAN UN127 OSTOV N127 LUKOV N731 LETNI UP92 MAVAR UY400 RETRA UL604 POD
AUI96A, UKOO, UKLL, N0460F360 RETRO L981 KUSAK
AUI58D, UKOO, UKBB, N0460F290 BULAN T219 KONIP
AUI180, EYVI, UKOO, N0460F350 DUKAT M996 OSMUS L33 BABUN N743 NIROV P156 SH
AUI88P, UKDE, UKBB, N0430F280 DNP W627 PEKIT A83 VEBIX
AUI606, UBBB, UKOO, N0460F340 EKRAM Y124 ABTEK N43 BUMAR B494 TESMI B947 RND B493 FASAD L140 BANID
WRC7213, UKBB, LYTV, N0450F340 SULUM W641 LAVDA N145 VILIS UN145 ABTER UZ924 DIRER UN164 MOJ UN732 POD
AUI712, LTBA, UKBB, N0460F340 MAKOL N600 REVDA UN600 BADKA N600 VOLVO T34 ATREK N180 SULUM
AUI820, UKOO, LOWW, N0430F340 TURSA N190 DOBOK UN190 BUKOV N190 MALBE UP27 ROBTU UM141 TOVKA
AUI58D, UKOO, UKBB, N0460F290 BULAN T219 KONIP
AUI711, UKBB, LTBA, N0460F350 SULUM M856 GOBLI L919 BAGRI UT219 IRDUM T219 RIXEN UL620 TETSA
AUI95Z, UKLL, UKOO, N0460F350 KUSAK L981 INROG M860 KIV P133 SURAP
WRC7214, LYTV, UKBB, N0450F330 NIK UP129 ROMOL P129 IDKOG T983 SORON M986 SLV
AUI330, LIRF, UKLL, N0460F360 OKUNO UL5 SPL UL196 VEBAL DCT LONLA Q560 SVITA
UTN4455, UKBB, LBBG, N0460F380 SULUM M856 GOBLI L919 BAGRI UL919 DINRO L919 GOSLO T228 RUTAR
AUI601, UKBB, UBBB, N0460F350 SULUM M856 ODS M854 ROPUT M747 SOBLO DCT IDLER N319 ADEKI L850 ERLEV
WRC7213, UKBB, LYTV, N0450F340 SULUM W641 LAVDA N145 VILIS UN145 ABTER UZ924 DIRER UN164 MOJ UN732 POD
AUI36U, UKLL, UKBB, N0460F290 ADBAN N983 SORON M986 SLV
AUI602, UBBB, UKBB, N0450F360 AGDAM M747 LUSAL M11 REBLO UM11 TBN UL851 KUGOS M860 BOMKI M854 RASIL M435 MIMKO T219 KONIP
AUI3TF, LIRF, UKBB, N0460F360 OKUNO UL5 SPL UL196 VEBAL DCT LONLA M986 SLV
AUI898, LUKK, UKBB, N0460F290 VOLVO T34 ATREK N180 SULUM
AUI897, UKBB, LUKK, N0460F280 SULUM W641 LAVDA Z888 MURKA
AUI329, UKLL, LIRF, N0460F360 SVITA Q560 VI M141 LADOB UM141 OKR UL856 GUKTU UM138 PUBEG UM725 GRZ UN737 ETPOK UT369 RITEB
AUI605, UKOO, UBBB, N0460F350 TARKA M854 ROPUT M747 SOBLO B143 IDLER M747 SUBUT T923 ERLEV
AUI96A, UKOO, UKLL, N0460F340 RETRO L981 KUSAK
UKR7588, UKBB, UKOO, N0430F290 SULUM M856 ABRIS
AUI8176, LCLK, UKOO, N0460F360 RUDER UM978 ALSUS UB15 VESAR UL619 MUT UL621 BUK UM861 RAKUR M861 ROMOK M856 PERED
AUI5VU, EPWA, UKBB, N0460F350 XIMBA N195 OMAVA L980 DORER A137 LAPVA M70 SLV
AUI91F, UKHH, UKOO, N0460F300 GR M987 MOKAD
AUI96A, UKOO, UKLL, N0460F360 RETRO L981 KUSAK
AUI606, UBBB, UKOO, N0460F340 EKRAM Y124 ABTEK N43 BUMAR B494 TESMI B947 RND B493 FASAD L140 BANID
AUI597, UKBB, UMKK, N0430F340 BO B246 LASDA M850 GOMAD L32 BABUN L33 LAKOD A926 BENAL
UKR7588, UKDD, UKBB, N0430F280 PEKIT A83 VEBIX
AUI91F, UKHH, UKOO, N0460F300 GR M987 MOKAD
AUI23K, UKBB, UKHH, N0460F290 GOTAP A137 KW
AUI343, UKBB, LCLK, N0460F330 SULUM M856 RAKUR UM856 MUT UL620 ALSUS M978 SOBOS
AUI3CT, UKBB, EYVI, N0460F360 BO B246 LASDA M850 GOMAD L32 BABUN L33 OSMUS M996 DUKAT
AUI36U, UKLL, UKBB, N0460F290 ADBAN N983 SORON M986 SLV
AUI26R, UKHH, UKBB, N0460F280 ETUKI W536 RS A137 GOTAP
AUI96A, UKOO, UKLL, N0460F340 RETRO L981 KUSAK
AUI92M, UKOO, UKHH, N0460F310 MOKAD M987 GR
AUI9PQ, UKBB, EPWA, N0460F360 KR T731 OKROT M70 SOMOX N191 LIMVI
AUI601, UKBB, UBBB, N0460F350 SULUM M856 ODS M854 ROPUT M747 SOBLO DCT IDLER N319 ADEKI L850 ERLEV
AUI95Z, UKLL, UKOO, N0460F350 KUSAK L981 INROG M860 KIV P133 SURAP
AUI33T, UKBB, UKLL, N0460F280 KR P27 PEPIL N983 ADBAN
UTN4415, UKBB, LTAI, N0460F350 SULUM M856 GOBLI L919 BAGRI UL919 DINRO N616 RIXEN UN616 IST UT35 BABSA
AUI23K, UKBB, UKHH, N0460F290 GOTAP A137 KW
AUI35V, UKBB, UKLL, N0430F260 KR P27 PEPIL N983 ADBAN
UTN3222, HEGN, UKLL, N0468F300 DCT HGD V603 GIDID DCT KAPIT UL677 MENLI/N0471F320 UL677 CVO A16 RASDA UM855 AYT UA16 KFK UL619 MAKOL N600 REVDA UL621 BUKOV N195 KOKUP
AUI329, UKLL, LIRF, N0460F360 SVITA Q560 LONLA DCT VEBAL UL196 SPL DCT SOMIG UZ924 MOPUV
AUI26R, UKHH, UKBB, N0460F280 ETUKI W536 RS A137 GOTAP
AUI92M, UKOO, UKHH, N0460F310 MOKAD M987 GR
UKR7588, UKOO, UKBB, N0430F290 BULAN T219 KONIP
AUI87C, UKBB, UKDE, N0430F290 PI L33 DEMER M70 DNP
AUI96A, UKOO, UKLL, N0460F340 RETRO L981 KUSAK
AUI95Z, UKLL, UKOO, N0460F330 KUSAK L981 INROG M860 KIV P133 SURAP
UKR7588, UKHH, UKOO, N0430F300 GR M987 MOKAD
AUI33T, UKBB, UKLL, N0460F300 KR P27 PEPIL N983 ADBAN
AUI91F, UKHH, UKOO, N0460F300 GR M987 MOKAD
AUI23K, UKBB, UKHH, N0460F290 GOTAP A137 KW
AUI53B, UKBB, UKOO, N0460F290 SULUM M856 ABRIS
WRC7007, LBSF, OPLA, N0450F370 UMPIT T343 WRN N605 SOBLO B143 IDLER M747 IBERI N77 TETRO N644 LAGAS M747 SUBUT T923 ERLEV M11 RODAR N644 DI A466 JHANG M875 NIKET G214 LEMOM
AUI92M, UKOO, UKHH, N0430F310 MOKAD M987 GR
AUI26R, UKHH, UKBB, N0460F260 KW A137 GOTAP
AUI598, UMKK, UKBB, N0460F330 BENAL A926 LAKOD L33 NANIR
AUI597, UKBB, UMKK, N0460F340 BO B246 LASDA M850 GOMAD L32 BABUN L33 LAKOD A926 BENAL
AUI57S, UKBB, UKOO, N0430F290 SULUM M856 ABRIS
AUI5252, LEPA, UKBB, N0460F360 MEROS UN853 LUMAS UM985 GEN UM859 KALIK UZ388 CHI UM859 DIMLO DCT LONLA M986 SLV
AUI182, EYVI, UKBB, N0460F350 DUKAT M996 LIMPO M854 BABUN L33 NANIR
AUI179, UKOO, EYVI, N0460F360 SH B492 LAMEX M854 BABUN L33 OSMUS M996 DUKAT
UKR7588, UKOO, UKBB, N0430F320 BULAN T219 KONIP
AUI95Z, UKLL, UKOO, N0460F350 GORKU M860 KIV P133 SURAP
AUI33T, UKBB, UKLL, N0460F300 KR P27 PEPIL N983 ADBAN
UKR7588, UKDD, UKBB, N0450F340 PEKIT A83 VEBIX
AUI762, OJAI, UKBB, N0450F380 BGN UH1 PURLA H1 GITLA UW13A VELOX UR18 ALSUS UL620 VESAR UL619 MUT UL621 BUK UM861 RAKUR M856 LAROM M435 MIMKO T219 KONIP
AUI5251, UKBB, LEPA, N0460F360 KR P27 VI Q560 LONLA DCT DIMLO UM859 DOL UP735 RIFEN UM196 BADOP UP125 TULIK UM859 GEN UQ713 IXITO UN850 BALEN UT250 RIXOT
UKR7588, UKBB, UKDD, N0450F330 PI L33 DEMER M70 ORSUS
AUI761, UKBB, OJAI, N0460F350 SULUM M856 RAKUR UM856 MUT UL620 ALSUS UR18 VELOX W13 SOLIN H2 SIRON J19 SALAM
AUI5066, LEAL, UKBB, N0460F360 MITOS UN851 PTC UZ238 CHELY UN853 LUMAS UQ206 NOSTA UM985 ABN UQ985 MALUG/N0460F370 UM985 NIT UM991 MALBE P27 PEPIL N983 SORON M986 SLV
UKR7588, UKDD, UKBB, N0450F340 PEKIT A83 VEBIX
UKR7588, UKBB, UKDD, N0450F350 PI L33 DEMER M70 ORSUS
AUI26R, UKHH, UKBB, N0460F280 ETUKI W536 RS A137 GOTAP
AUI92M, UKOO, UKHH, N0460F310 MOKAD M987 GR
AUI180, EYVI, UKOO, N0460F350 DUKAT M996 OSMUS L33 BABUN N743 NIROV P156 SH
AUI3CT, UKBB, EYVI, N0460F360 BO B246 LASDA M850 GOMAD L32 BABUN L33 OSMUS M996 DUKAT
AUI26R, UKHH, UKBB, N0460F280 ETUKI W536 RS A137 GOTAP
AUI92M, UKOO, UKHH, N0460F310 MOKAD M987 GR
AUI36U, UKLL, UKBB, N0460F290 ADBAN N983 SORON M986 SLV
AUI95Z, UKLL, UKOO, N0460F350 GORKU M860 KIV P133 SURAP
AUI96A, UKOO, UKLL, N0460F360 RETRO L981 KUSAK
AUI136, LFMN, UKBB, N0460F350 BASIP Y15 ABN UM985 GEN UM859 KALIK UZ388 CHI UM859 DIMLO DCT LONLA M986 SLV
AUI718, LTBA, UKOO, N0460F360 ERTAS N604 MAKOL N600 REVDA UL743 OSDOR N617 OGLAR
AUI362, LGTS, UKBB, N0460F350 ODIKO UM987 EVIVI M987 SOMOV UM987 SORDU UN180 POGAV N180 SULUM
AUI717, UKOO, LTBA, N0460F350 BUNAG T219 BAGRI UL919 DINRO N616 RIXEN UL620 UNSAV
AUI361, UKBB, LGTS, N0460F340 SULUM W641 LAVDA N181 NUNTA UN181 TIMUR N181 NIKTI UY505 PEREN UM603 ARNAS
AUI57E, UKBB, UKOO, N0460F290 SULUM M856 ABRIS
AUI23K, UKBB, UKHH, N0460F290 GOTAP A137 KW
WRC1101, UKBB, UKDD, N0450F270 PI L33 DEMER M70 ORSUS
AUI846, LOWW, UKBB, N0450F350 KOXER Z649 XENAK M985 NIT UM991 MALBE M991 IVF M986 SLV
AUI944, LEMD, UKLL, N0460F360 PINAR UN870 SEGRE UN871 BADVI UL725 LEDRI UM985 NIT UM991 MALBE P27 VI Q560 SVITA
AUI943, UKLL, LEMD, N0460F360 DIBED L984 USALO Z127 TUSIN UM984 STO UM725 DENUX UL856 AKABI UQ227 NINTU UN869 ZAR UZ245 TERSA
AUI5065, UKBB, LEAL, N0460F360 VESEL M141 VI P27 MALBE UP27 ROBTU UM141 OKR UL856 GUKTU UM138 ABRUK UM984 DETSA/N0460F370 UQ984 VAMTU UM984 PADKO UY38 VATIR UN852 PIVUS UZ237 OKITI UM603 GERVU
AUI33T, UKBB, UKLL, N0460F300 KR P27 PEPIL N983 ADBAN
AUI514, UGSB, UKBB, N0460F340 SARPI UN37 TBN UL851 KUGOS M860 BOMKI M854 RASIL M435 MIMKO T219 KONIP
AUI312, LIMC, UKBB, N0460F360 OSKOR UM985 MALUG UP978 VILAK UP976 GRZ UP978 GOTAR DCT LONLA M986 SLV
AUI5252, LEPA, UKBB, N0460F360 MEROS UN853 LUMAS UM985 GEN UM859 KALIK UZ388 CHI UM859 DIMLO DCT LONLA M986 SLV
AUI513, UKBB, UGSB, N0460F350 SULUM M856 ODS M854 BOMKI M860 KUGOS UL851 TBN UN37 SARPI
AUI24H, UKHH, UKBB, N0460F280 ETUKI W536 RS A137 GOTAP
AUI92M, UKOO, UKHH, N0460F310 MOKAD M987 GR
AUI57E, UKBB, UKOO, N0460F290 SULUM M856 ABRIS
AUI57E, UKBB, UKOO, N0460F290 SULUM M856 ABRIS
AUI847, UKBB, LOWW, N0460F360 KR P27 VI M141 LADOB UM141 TIVON UP183 ETIPA P182 REKLU
AUI5251, UKBB, LEPA, N0460F360 KR P27 VI Q560 LONLA DCT DIMLO UM859 DOL UP735 RIFEN UM196 BADOP UP125 TULIK UM859 GEN UQ713 IXITO UN850 BALEN UT250 RIXOT
AUI26R, UKHH, UKBB, N0460F280 ETUKI W536 RS
AUI092, UKOO, UKHH, N0460F310 MOKAD M987 GR
AUI602, UBBB, UKBB, N0460F360 RASAM DCT BEKIR L850 ADEKI N319 NIDLI DCT ROLIN UN644 KARDE UL851 KUGOS M860 BOMKI M854 RASIL M435 MIMKO T219 KONIP
AUI095, UKLL, UKOO, N0460F350 GORKU M860 KIV P133 SURAP
AUI892, UMMS, UKBB, N0460F290 DELON P987 BORAT L33 NANIR
AUI601, UKBB, UBBB, N0460F350 SULUM M856 ODS M854 ROPUT M747 SOBLO B143 IDLER N319 ADEKI L850 ERLEV
AUI891, UKBB, UMMS, N0460F300 BO B246 LASDA P749 GOMAD M850 NASKA
AUI762, OJAI, UKBB, N0460F320 LUDAN A412 TAN/N0450F360 B544 TUSYR DCT GAZ DCT KEPES UM854 INB UL852 UDROS Y187 OSDOR N617 ODS T219 KONIP
AUI761, UKBB, OJAI, N0460F350 SULUM M856 GOBLI L919 NURPO UY193 MOSOP Y186 ODERO UP975 HAKAN UM856 BAG UL601 KTN R785 ZELAF/N0430F320 A412 LUDAN
AUI424, EDDT, UKBB, N0460F370 GERGA Y206 ARSAP Y209 KELOD L980 POLON M70 SLV
AUI5066, LEAL, UKBB, N0460F360 MITOS UN851 PTC UZ238 CHELY UN853 LUMAS UQ206 NOSTA UM985 ABN UQ985 MALUG UM985 NIT UM991 MALBE P27 PEPIL N983 SORON M986 SLV
UDN204, UKLL, UKDD, N0430F350 GORKU L984 OSLAN
UDN203, UKDD, UKLL, N0430F360 OSLAN L984 GORKU
AUI423, UKBB, EDDT, N0460F360 KR T731 OKROT M70 POLON L980 KELOD L979 GOVEN T205 NUKRO
AUI88P, UKDE, UKBB, N0430F280 DNP W627 PEKIT A83 VEBIX
AUI5065, UKBB, LEAL, N0460F360 VESEL M141 VI P27 MALBE UP27 ROBTU UM141 OKR UL856 GUKTU UM138 ABRUK UM984 DETSA UQ984 VAMTU UM984 PADKO UY38 VATIR UN852 PIVUS UZ237 OKITI UM603 GERVU
AUI172, ESSA, UKBB, N0460F350 NEKLA N623 TEDRO M854 MNS P987 BORAT L33 NANIR