PSEUDOPILOT:ALL

AIRPORT_ALT:437.0

ILS36R:50.3247290:30.9037242:50.3604519:30.9064402
ILS36L:50.3207667:30.8791837:50.3519700:30.8816087
ILS18R:50.3520320:30.8816087:175.0
ILS18L:50.3604519:30.9064402:50.3246052:30.9037242

PSEUDOPILOT:ALL
CONTROLLER:UKBB_TWR:119.300
PSEUDOPILOT:ALL
CONTROLLER:UKBB_GND:118.050
PSEUDOPILOT:ALL
CONTROLLER:UKBB_APP:122.770
PSEUDOPILOT:ALL
CONTROLLER:UKBV_APP:127.720
PSEUDOPILOT:ALL
CONTROLLER:UKBV_CTR:136.400

PSEUDOPILOT:ALL
@N:AUI424:4640:1:50.1961603:29.6031682:13000:0:664:0
$FPAUI424:*A:I:B738:420:EDDT:0000:0000:35000:UKBB:00:00:0:0::/v/:GERGA Y206 ARSAP Y209 KELOD L980 POLON M70 SLV
SIMDATA:AUI424:*:*:25:1:0.010
$ROUTE:BBW01 BB672 BB670 BB668 BB665 BB664 BB662 BB660 BB642 BB640 BB638 BB636 BB634 BB630 ILS36R
IASVARIATION:6
DELAY:2:5
INITIALPSEUDOPILOT:UKBV_CTR

PSEUDOPILOT:ALL
@N:AUI576:2645:1:50.2558677:31.8470420:15400:0:2996:0
$FPAUI576:*A:I:B738:420:UKHH:0000:0000:30000:UKBB:00:00:0:0::/v/:KW A137 GOTAP
SIMDATA:AUI576:*:*:25:1:0.010
$ROUTE:GOTAP BB658 BB656 BB654 BB652 BB650 BB648 BB646 BB644 BB642 BB640 BB638 BB636 BB634 BB630 ILS36R
IASVARIATION:1
DELAY:2:5
INITIALPSEUDOPILOT:UKBV_CTR

PSEUDOPILOT:ALL
@N:AUI024:4612:1:50.8589222:31.4090957:15478:0:2612:0
$FPAUI024:*A:I:B735:420:UUDD:0000:0000:36000:UKBB:00:00:0:0::/v/:SUGIR B901 BANIP R22 PIMEN N181 NEMIP
SIMDATA:AUI024:*:*:25:1:0.010
$ROUTE:BBN01 BBE04 INVAD BB654 BB652 BB650 BB648 BB646 BB644 BB642 BB640 BB638 BB636 BB634 BB630 ILS36R
IASVARIATION:7
DELAY:2:5
INITIALPSEUDOPILOT:UKBV_CTR

PSEUDOPILOT:ALL
@N:WRC7172:4545:1:50.2509390:29.7762507:12000:0:664:0
$FPWRC7172:*A:I:B735:420:LDPL:0000:0000:36000:UKBB:00:00:0:0::/v/:N0450F350 RJK P151 ALIVO UL156 VALLU UM859 DIMLO DCT LONLA M986 SLV
SIMDATA:WRC7172:*:*:25:1:0.010
$ROUTE:BBW01 BB672 BB670 BB668 BB665 BB664 BB662 BB660 BB642 BB640 BB638 BB636 BB634 BB630 ILS36R
IASVARIATION:7
DELAY:2:5
INITIALPSEUDOPILOT:UKBV_CTR

PSEUDOPILOT:ALL
@N:AUI5334:1435:1:49.5971427:31.4228980:16700:0:4124:0
$FPAUI5334:*A:I:B738:420:LTFE:0000:0000:34000:UKBB:00:00:0:0::/v/:N0459F320 AKBUK UN618 BIG/N0459F330 UN604 BKZ/N0460F360 UN604 MAKOL N600 REVDA UL743 OSDOR N617 ODS T219 KONIP
SIMDATA:AUI5334:*:*:25:1:0.010
$ROUTE:KONIP ASVEN CY BB656 BB654 BB652 BB650 BB648 BB646 BB644 BB642 BB640 BB638 BB636 BB634 BB630 ILS36R
IASVARIATION:5
DELAY:2:5
INITIALPSEUDOPILOT:UKBV_CTR

PSEUDOPILOT:ALL
@N:UDN004:4540:1:49.7626018:31.9585869:17000:0:3528:0
$FPUDN004:*A:I:E145:420:UKDD:0000:0000:26000:UKBB:00:00:0:0::/v/:N0400F260 PEKIT A83 VEBIX
SIMDATA:UDN004:*:*:25:1:0.010
$ROUTE:VEBIX CY BB656 BB654 BB652 BB650 BB648 BB646 BB644 BB642 BB640 BB638 BB636 BB634 BB630 ILS36R
IASVARIATION:3
DELAY:2:5
INITIALPSEUDOPILOT:UKBV_CTR

PSEUDOPILOT:ALL
@N:AUI892:2757:1:50.8901559:30.1913786:18000:0:1552:0
$FPAUI892:*A:I:B738:420:UMMS:0000:0000:33000:UKBB:00:00:0:0::/v/:N0460F290 DELON P987 BORAT L33 NANIR
SIMDATA:AUI892:*:*:25:1:0.010
$ROUTE:NANIR BB674 BB672 BB670 BB668 BB665 BB664 BB662 BB660 BB642 BB640 BB638 BB636 BB634 BB630 ILS36R
IASVARIATION:7
DELAY:2:5
INITIALPSEUDOPILOT:UKBV_CTR

PSEUDOPILOT:ALL
@N:AUI602:0470:1:49.1441000:31.4517063:25000:0:3804:0
$FPAUI602:*A:I:B738:420:UBBB:0000:0000:36000:UKBB:00:00:0:0::/v/:N0460F360 RASAM DCT BEKIR L850 ADEKI N319 NIDLI DCT ROLIN UN644 KARDE UL851 KUGOS M860 BOMKI M854 RASIL M435 MIMKO T219 KONIP
SIMDATA:AUI602:*:*:25:1:0.010
$ROUTE:TEPLO KONIP ASVEN CY BB656 BB654 BB652 BB650 BB648 BB646 BB644 BB642 BB640 BB638 BB636 BB634 BB630 ILS36R
IASVARIATION:3
DELAY:2:5
INITIALPSEUDOPILOT:UKBV_CTR

PSEUDOPILOT:ALL
@N:SDM942:2751:1:51.2709402:31.7209381:16700:0:2304:0
$FPSDM942:*A:I:B735:420:UUDD:0000:0000:36000:UKBB:00:00:0:0::/v/:SUGIR B901 BANIP R22 PIMEN N181 NEMIP
SIMDATA:SDM942:*:*:25:1:0.010
$ROUTE:BBN01 BBE04 INVAD BB654 BB652 BB650 BB648 BB646 BB644 BB642 BB640 BB638 BB636 BB634 BB630 ILS36R
IASVARIATION:5
DELAY:2:5
INITIALPSEUDOPILOT:UKBV_CTR

PSEUDOPILOT:ALL
@N:CLO233:0512:1:50.2667292:32.6982243:20000:0:2996:0
$FPCLO233:*A:I:A321:420:UUOB:0000:0000:38000:UKBB:00:00:0:0::/v/:LEMBO R371 LUMAT W617 RS A137 GOTAP
SIMDATA:CLO233:*:*:25:1:0.010
$ROUTE:LULAP GOTAP BB658 BB656 BB654 BB652 BB650 BB648 BB646 BB644 BB642 BB640 BB638 BB636 BB634 BB630 ILS36R
IASVARIATION:7
DELAY:2:5
INITIALPSEUDOPILOT:UKBV_CTR

PSEUDOPILOT:ALL
@N:AUI186:4612:1:51.9443531:29.4521225:35000:0:1876:0
$FPAUI186:*A:I:B738:420:EVRA:0000:0000:39000:UKBB:00:00:0:0::/v/:N0460F350 TUSAS M850 DUBIN M854 MNS P987 BORAT L33 NANIR
SIMDATA:AUI186:*:*:25:1:0.010
$ROUTE:BORAT NANIR BB674 BB672 BB670 BB668 BB665 BB664 BB662 BB660 BB642 BB640 BB638 BB636 BB634 BB630 ILS36R
IASVARIATION:7
DELAY:2:5
INITIALPSEUDOPILOT:UKBV_CTR

PSEUDOPILOT:ALL
@N:SAS7301:0415:1:51.6763765:29.4681814:29000:0:1764:0
$FPSAS7301:*A:I:B737:420:ESSA:0000:0000:35000:UKBB:00:00:0:0::/v/:N0460F350 NEKLA N623 TEDRO M854 MNS P987 BORAT L33 NANIR
SIMDATA:SAS7301:*:*:25:1:0.010
$ROUTE:BORAT NANIR BB674 BB672 BB670 BB668 BB665 BB664 BB662 BB660 BB642 BB640 BB638 BB636 BB634 BB630 ILS36R
IASVARIATION:3
DELAY:2:5
INITIALPSEUDOPILOT:UKBV_CTR

PSEUDOPILOT:ALL
@N:BAW553:0712:1:50.2215361:28.1228077:20000:0:576:0
$FPBAW553:*A:I:B738:420:EGKK:0000:0000:35000:UKBB:00:00:0:0::/v/:CLN UL620 EXOBA UM994 PENEK UL980 TUVAK Y209 KELOD L980 POLON M70 SLV
SIMDATA:BAW553:*:*:25:1:0.010
$ROUTE:LAPVA SLV BBW01 BB672 BB670 BB668 BB665 BB664 BB662 BB660 BB642 BB640 BB638 BB636 BB634 BB630 ILS36R
IASVARIATION:10
DELAY:2:5
INITIALPSEUDOPILOT:UKBV_CTR

PSEUDOPILOT:ALL
@N:DLH109H:4642:1:50.3438579:29.0563008:18000:0:1252:0
$FPDLH109H:*A:I:B738:420:EDDT:0000:0000:35000:UKBB:00:00:0:0::/v/:GERGA Y206 ARSAP Y209 KELOD L980 POLON M70 SLV
SIMDATA:DLH109H:*:*:25:1:0.010
$ROUTE:SLV BBW01 BB672 BB670 BB668 BB665 BB664 BB662 BB660 BB642 BB640 BB638 BB636 BB634 BB630 ILS36R
IASVARIATION:2
DELAY:2:5
INITIALPSEUDOPILOT:UKBV_CTR

PSEUDOPILOT:ALL
@N:AUI35V:4612:1:50.3521871:30.8988862:437:0:48:0
$FPAUI35V:*A:I:B735:420:UKBB:0000:0000:28000:UKLL:00:00:0:0::/v/:KR P27 PEPIL N983 ADBAN
SIMDATA:AUI35V:*:*:25:1:0.010
$ROUTE:BB720 BBW02 BBW01 KR LAPVA RANOM SW BABIS PEPIL ADBAN
IASVARIATION:7
DELAY:2:5
INITIALPSEUDOPILOT:UKBV_CTR

